%YAML 1.1
%TAG !u! tag:unity3d.com,2011:
--- !u!114 &11400000
MonoBehaviour:
  m_ObjectHideFlags: 0
  m_PrefabParentObject: {fileID: 0}
  m_PrefabInternal: {fileID: 0}
  m_GameObject: {fileID: 0}
  m_Enabled: 1
  m_EditorHideFlags: 0
  m_Script: {fileID: 11500000, guid: 932694bc48e7cc74b87d9d6a4f7f43b9, type: 3}
  m_Name: Humidity
  m_EditorClassIdentifier: 
  AttributesWeeklyScorePercent: 25
  attributeType: 3
  name: Humidity
  scoreGroups:
  - {fileID: 11400000, guid: 00d84f07887148d458daa485cd22eebc, type: 2}
