%YAML 1.1
%TAG !u! tag:unity3d.com,2011:
--- !u!114 &11400000
MonoBehaviour:
  m_ObjectHideFlags: 0
  m_PrefabParentObject: {fileID: 0}
  m_PrefabInternal: {fileID: 0}
  m_GameObject: {fileID: 0}
  m_Enabled: 1
  m_EditorHideFlags: 0
  m_Script: {fileID: 11500000, guid: 9af92b1a75e7dc743aa3b444af01e275, type: 3}
  m_Name: Venta01
  m_EditorClassIdentifier: 
  humidityEffect: -10
  temperatureEffect: -3
  electricConsumePerHour: 30
